<svg width="94" height="94" viewBox="0 0 94 94" fill="none" xmlns="http://www.w3.org/2000/svg">
<path fill-rule="evenodd" clip-rule="evenodd" d="M56.0565 17.9735C56.0565 23.4304 52.3412 29.4678 47.1165 29.4678C41.7757 29.4678 38.1765 23.4304 38.1765 17.9735C38.1765 12.7488 41.4274 9.84619 47.1165 9.84619C52.8056 9.84619 56.0565 12.8649 56.0565 17.9735ZM53.8506 17.8574C53.8506 14.0259 51.5285 12.0522 47.1165 12.0522C42.5885 12.0522 40.3825 14.0259 40.3825 17.8574C40.3825 22.5015 43.6334 27.0296 47.1165 27.0296C50.5997 27.0296 53.8506 22.6176 53.8506 17.8574ZM53.386 32.4866C53.7343 33.0671 54.431 33.1832 54.8954 32.8349C56.2886 32.0221 58.2624 32.1382 60.004 33.1832C62.326 34.5764 63.6032 37.3629 63.4871 40.4977C62.326 58.61 75.3297 60.6999 75.4458 60.6999H75.5619C76.1424 60.6999 76.6069 60.3516 76.723 59.771C76.8391 59.1905 76.3747 58.61 75.7941 58.4939C75.781 58.4906 75.7597 58.4859 75.7309 58.4796L75.7307 58.4795C74.7391 58.261 64.7906 56.0685 65.6931 40.6138C65.9253 36.6663 64.2998 33.1832 61.165 31.2094C58.7268 29.7001 55.9403 29.5839 53.7343 30.745C53.1538 31.2094 53.0377 31.906 53.386 32.4866ZM18.671 60.6999H18.5549C17.9744 60.6999 17.51 60.3516 17.51 60.0033C17.3939 59.4228 17.8583 58.8423 18.4388 58.7261C18.452 58.7229 18.4733 58.7182 18.5023 58.7118C19.4939 58.4932 29.4423 56.3008 28.5399 40.8461C28.3077 36.7825 30.0492 33.2993 33.0679 31.4417C35.5061 29.9323 38.4087 29.7001 40.4986 30.9773C40.963 31.2095 41.1952 31.9061 40.8469 32.4866C40.6147 32.951 39.9181 33.1832 39.3376 32.8349C37.9443 32.0222 35.9705 32.1383 34.229 33.1832C31.7908 34.5765 30.5137 37.363 30.7459 40.4978C31.7908 58.4939 18.7871 60.6999 18.671 60.6999ZM58.0302 63.0219C60.5845 62.0931 62.9066 61.3965 64.9964 61.3965C72.1949 61.3965 78.0001 66.389 78.0001 72.6586C78.0001 78.9282 72.1949 84.0368 64.9964 84.0368C60.8167 84.0368 53.1538 80.902 47.3486 78.2316C41.1951 80.902 33.1839 84.0368 29.0042 84.0368C21.8057 84.0368 16.0005 78.9282 16.0005 72.6586C16.0005 66.389 21.8057 61.2804 29.0042 61.2804C30.9779 61.2804 33.4161 61.8609 35.8543 62.7897C36.8992 59.5388 39.4535 49.4377 35.8543 38.7562C35.6221 38.1756 35.9704 37.5951 36.5509 37.3629C37.1314 37.1307 37.712 37.479 37.9442 38.0595C41.8917 49.67 38.9891 60.3515 37.9442 63.7186C40.3824 64.7635 42.7044 66.0406 44.6782 67.2017C46.0715 68.0144 47.9291 68.0144 49.3224 67.2017C51.2962 66.0406 53.6182 64.8796 55.9403 63.8347C54.8954 60.5837 51.9928 49.9022 55.9403 38.1756C56.0564 37.5951 56.7531 37.2468 57.3336 37.479C57.9141 37.5951 58.2624 38.2917 58.0302 38.8723C54.431 49.67 56.9853 59.8871 58.0302 63.0219ZM50.019 77.1866C56.9853 80.2053 62.2099 81.9469 64.9964 81.9469C70.9178 81.9469 75.678 77.7672 75.5619 72.8908C75.5619 67.7822 70.8017 63.7186 64.8803 63.7186C60.5845 63.7186 53.9666 67.2017 50.3673 69.2916C48.1613 70.5687 45.4909 70.5687 43.4011 69.2916C39.8018 67.2017 33.1839 63.7186 28.888 63.7186C22.9667 63.7186 18.2065 67.8983 18.2065 72.8908C18.2065 77.9994 22.9667 82.063 28.888 82.063C31.5584 82.063 37.1314 80.3214 44.446 77.1866L41.6595 75.7934C41.079 75.5612 40.9629 74.8646 41.1951 74.284C41.4273 73.7035 42.1239 73.5874 42.7044 73.8196C42.7625 73.8196 43.2269 74.0518 44.0106 74.4437L44.0109 74.4438C44.7946 74.8357 45.8975 75.3871 47.2325 76.0256C50.019 74.7485 51.9928 73.8196 51.9928 73.8196C52.5733 73.4713 53.2699 73.7035 53.5021 74.284C53.8504 74.8646 53.6182 75.5612 53.0377 75.7934C53.0377 75.7934 51.8767 76.3739 50.019 77.1866Z" fill="#F3E9DF"/>
</svg>
